../Core/Src/UDPController.c:18:6:printControllerValue	32	static
../Core/Src/UDPController.c:29:6:UDPControllerReceive	384	static
../Core/Src/UDPController.c:108:10:UDPController_GetControllerButtons	4	static
../Core/Src/UDPController.c:112:6:UDPController_GetLeftStick	16	static
../Core/Src/UDPController.c:116:6:UDPController_GetRightStick	16	static
../Core/Src/UDPController.c:121:6:UDPController_Norm2Polar	24	static
